%YAML 1.1
%TAG !u! tag:unity3d.com,2011:
--- !u!1045 &1
EditorBuildSettings:
  m_ObjectHideFlags: 0
  serializedVersion: 2
  m_Scenes:
  - enabled: 1
    path: Assets/Scenes/MenuPrincipal.unity
    guid: 0ed1abfd43cc11942b586d85327a5532
  - enabled: 1
    path: Assets/Scenes/Fase2Test.unity
    guid: dd17a579cdffe9a4dae6fa7ec689fb84
  m_configObjects: {}
